NaN,0.27291,NaN,NaN,0.76033,NaN,NaN,NaN,NaN,NaN,NaN,NaN,NaN,NaN,NaN,NaN,NaN,NaN,NaN,0.9323
NaN,NaN,NaN,NaN,NaN,NaN,NaN,NaN,NaN,NaN,NaN,NaN,NaN,NaN,NaN,NaN,NaN,0.89221,NaN,NaN
NaN,NaN,NaN,NaN,NaN,NaN,0.99436,NaN,NaN,NaN,NaN,NaN,NaN,NaN,NaN,NaN,NaN,NaN,NaN,0.014327
0.9465,NaN,NaN,NaN,NaN,NaN,NaN,NaN,NaN,NaN,NaN,NaN,0.8071,0.26663,NaN,NaN,NaN,0.2815,0.88654,NaN
NaN,0.19579,NaN,NaN,NaN,NaN,NaN,NaN,NaN,NaN,NaN,NaN,NaN,NaN,NaN,NaN,0.13502,NaN,0.091206,NaN
0.59578,NaN,0.61427,NaN,NaN,NaN,0.66012,NaN,NaN,NaN,NaN,NaN,NaN,NaN,NaN,NaN,0.066826,0.57375,NaN,0.42307
NaN,NaN,NaN,NaN,NaN,NaN,NaN,NaN,NaN,NaN,0.95137,NaN,NaN,NaN,0.10225,NaN,NaN,NaN,NaN,NaN
NaN,NaN,NaN,0.022801,NaN,NaN,0.024841,0.46791,0.78545,0.73852,NaN,NaN,NaN,0.95021,0.92995,NaN,NaN,0.67282,NaN,NaN
NaN,NaN,NaN,NaN,NaN,NaN,NaN,0.47293,NaN,NaN,NaN,NaN,NaN,NaN,NaN,NaN,NaN,NaN,NaN,0.0090599
0.97916,NaN,NaN,NaN,0.51452,NaN,NaN,NaN,NaN,NaN,0.40922,NaN,NaN,NaN,NaN,NaN,NaN,NaN,0.88923,0.19085
NaN,NaN,NaN,NaN,0.16076,NaN,NaN,0.26988,NaN,NaN,NaN,0.52023,NaN,NaN,0.1396,0.40605,NaN,NaN,NaN,NaN
NaN,NaN,NaN,NaN,NaN,0.13249,NaN,NaN,0.62725,0.24486,0.94155,NaN,NaN,NaN,NaN,0.33276,NaN,NaN,NaN,NaN
NaN,NaN,NaN,NaN,NaN,NaN,NaN,NaN,NaN,NaN,NaN,NaN,NaN,0.68106,0.98028,NaN,0.81653,NaN,NaN,NaN
NaN,NaN,NaN,0.58401,NaN,0.075935,NaN,NaN,NaN,0.15185,0.3105,NaN,NaN,NaN,NaN,NaN,0.24159,NaN,NaN,NaN
NaN,NaN,NaN,NaN,NaN,NaN,NaN,NaN,NaN,NaN,NaN,NaN,0.052065,NaN,NaN,NaN,NaN,NaN,NaN,0.88196
NaN,0.7991,0.41782,NaN,0.88146,NaN,NaN,NaN,0.61248,NaN,0.54041,NaN,0.25459,NaN,NaN,NaN,0.72796,NaN,NaN,0.7331
0.0011639,NaN,0.83728,NaN,NaN,NaN,NaN,NaN,NaN,0.88964,NaN,NaN,0.017905,0.94712,NaN,0.47825,NaN,NaN,NaN,NaN
NaN,NaN,NaN,0.9345,NaN,NaN,NaN,0.046548,NaN,NaN,0.37159,0.95678,NaN,NaN,NaN,NaN,NaN,NaN,0.072628,NaN
NaN,NaN,NaN,NaN,NaN,NaN,NaN,NaN,NaN,NaN,NaN,NaN,0.74808,NaN,NaN,NaN,NaN,NaN,NaN,NaN
NaN,0.19144,NaN,NaN,NaN,NaN,NaN,NaN,NaN,NaN,0.06851,NaN,0.22338,NaN,NaN,NaN,NaN,NaN,NaN,NaN
NaN,NaN,NaN,NaN,NaN,NaN,NaN,NaN,0.33536,0.63342,NaN,0.6498,NaN,0.50398,NaN,0.83042,0.51749,0.84075,NaN,NaN
NaN,NaN,0.40113,0.47644,0.59984,NaN,NaN,NaN,NaN,0.4414,NaN,0.32237,NaN,NaN,NaN,NaN,NaN,0.1784,NaN,NaN
NaN,NaN,0.24536,NaN,NaN,NaN,NaN,NaN,NaN,NaN,0.76943,NaN,0.71424,NaN,NaN,NaN,NaN,NaN,NaN,NaN
NaN,NaN,NaN,NaN,NaN,NaN,NaN,0.41936,NaN,NaN,0.45748,NaN,NaN,NaN,NaN,0.029207,NaN,NaN,NaN,NaN
NaN,NaN,NaN,NaN,NaN,NaN,0.29214,NaN,0.59145,NaN,NaN,NaN,NaN,NaN,NaN,0.89828,NaN,NaN,NaN,NaN
0.87577,NaN,0.25298,NaN,NaN,NaN,NaN,NaN,NaN,0.20814,NaN,0.81463,NaN,NaN,NaN,NaN,NaN,NaN,NaN,NaN
NaN,0.59562,NaN,NaN,NaN,NaN,NaN,NaN,NaN,NaN,NaN,0.30222,0.58215,NaN,NaN,NaN,NaN,NaN,NaN,NaN
0.085006,NaN,NaN,NaN,NaN,0.98642,NaN,0.45112,NaN,NaN,NaN,NaN,0.59416,NaN,NaN,NaN,NaN,NaN,NaN,NaN
NaN,NaN,NaN,NaN,NaN,NaN,0.2255,NaN,NaN,NaN,NaN,NaN,NaN,NaN,NaN,NaN,NaN,NaN,NaN,NaN
NaN,NaN,0.77176,NaN,NaN,NaN,NaN,NaN,NaN,NaN,NaN,0.71123,NaN,NaN,NaN,NaN,0.49877,0.94277,0.85303,0.94219
