NaN,NaN,NaN,0.090093,NaN,NaN,NaN,NaN,NaN,NaN,NaN,NaN,NaN,NaN,NaN,NaN,NaN,NaN,NaN,NaN
NaN,NaN,0.21093,NaN,0.2893,NaN,NaN,NaN,NaN,NaN,NaN,NaN,0.7114,NaN,NaN,NaN,NaN,NaN,NaN,NaN
NaN,0.34496,NaN,NaN,0.1343,NaN,NaN,NaN,0.10525,NaN,NaN,0.7722,NaN,0.30237,NaN,NaN,NaN,0.13029,0.151,NaN
NaN,NaN,NaN,NaN,NaN,NaN,NaN,0.91975,NaN,0.15806,NaN,NaN,NaN,NaN,NaN,NaN,NaN,NaN,NaN,NaN
NaN,NaN,NaN,0.96859,NaN,0.54556,NaN,NaN,NaN,NaN,0.90878,NaN,NaN,0.237,NaN,NaN,NaN,NaN,NaN,0.010291
NaN,NaN,NaN,0.78509,NaN,NaN,NaN,0.47957,NaN,NaN,NaN,NaN,NaN,NaN,NaN,NaN,NaN,NaN,NaN,NaN
NaN,0.44288,0.34737,NaN,NaN,0.0090097,NaN,NaN,NaN,NaN,NaN,NaN,0.23367,NaN,NaN,0.60429,NaN,NaN,NaN,0.68355
NaN,0.42522,NaN,NaN,NaN,NaN,NaN,NaN,NaN,NaN,NaN,NaN,NaN,NaN,NaN,0.40635,NaN,NaN,NaN,NaN
NaN,NaN,NaN,NaN,0.91683,NaN,NaN,NaN,NaN,NaN,NaN,NaN,0.48569,0.80435,0.46802,NaN,0.37422,NaN,NaN,NaN
NaN,NaN,NaN,NaN,NaN,0.79178,0.87719,NaN,0.86331,NaN,NaN,NaN,0.89971,NaN,0.9127,0.2046,NaN,0.063787,NaN,NaN
NaN,0.75562,NaN,NaN,NaN,NaN,0.67745,NaN,NaN,NaN,NaN,NaN,NaN,NaN,NaN,NaN,NaN,NaN,0.6172,NaN
0.98159,NaN,NaN,0.86052,NaN,NaN,0.9256,NaN,NaN,NaN,NaN,NaN,NaN,NaN,NaN,NaN,NaN,NaN,NaN,0.23103
0.97111,NaN,NaN,NaN,0.42669,NaN,0.55022,0.94566,NaN,NaN,NaN,NaN,NaN,NaN,NaN,NaN,NaN,0.12698,0.92941,NaN
NaN,NaN,NaN,NaN,NaN,NaN,NaN,NaN,NaN,NaN,NaN,NaN,0.67209,NaN,NaN,NaN,NaN,NaN,NaN,NaN
NaN,0.93688,0.94422,0.57036,NaN,NaN,0.082959,NaN,0.043688,NaN,0.28336,NaN,NaN,0.4587,NaN,NaN,NaN,NaN,NaN,NaN
NaN,NaN,NaN,0.33472,NaN,NaN,0.11562,NaN,NaN,NaN,NaN,NaN,NaN,NaN,NaN,NaN,NaN,NaN,NaN,NaN
NaN,NaN,NaN,NaN,NaN,NaN,NaN,NaN,0.26464,NaN,NaN,NaN,NaN,NaN,NaN,NaN,0.24095,NaN,NaN,NaN
NaN,0.25875,NaN,NaN,NaN,0.020871,NaN,NaN,NaN,NaN,NaN,NaN,0.091339,NaN,0.13009,NaN,NaN,NaN,NaN,NaN
0.92151,NaN,NaN,NaN,NaN,NaN,NaN,NaN,NaN,NaN,NaN,NaN,NaN,NaN,NaN,NaN,0.27276,NaN,0.21643,NaN
NaN,NaN,NaN,0.93746,NaN,0.080728,0.99016,NaN,NaN,0.011465,NaN,0.94954,NaN,NaN,NaN,0.0013456,0.011802,0.07871,NaN,NaN
NaN,0.6906,NaN,NaN,NaN,NaN,NaN,0.32592,NaN,NaN,NaN,NaN,0.37473,NaN,0.34345,NaN,NaN,NaN,NaN,NaN
0.80804,NaN,NaN,NaN,NaN,NaN,NaN,NaN,NaN,NaN,0.48018,NaN,NaN,NaN,NaN,NaN,NaN,NaN,NaN,NaN
NaN,NaN,NaN,NaN,0.59331,0.66233,NaN,NaN,NaN,NaN,NaN,0.20664,NaN,NaN,0.7005,NaN,0.86938,NaN,NaN,NaN
NaN,0.047861,NaN,NaN,0.1106,NaN,NaN,NaN,NaN,NaN,NaN,NaN,NaN,NaN,0.30081,NaN,0.0070343,NaN,NaN,NaN
NaN,0.83994,NaN,NaN,NaN,NaN,NaN,0.32717,NaN,NaN,NaN,NaN,0.43183,NaN,NaN,NaN,0.75973,NaN,0.26804,0.64582
NaN,NaN,NaN,NaN,NaN,NaN,NaN,NaN,0.6554,NaN,NaN,NaN,0.6514,0.49016,NaN,NaN,NaN,NaN,0.39052,NaN
NaN,NaN,NaN,NaN,NaN,NaN,NaN,NaN,NaN,NaN,NaN,NaN,NaN,NaN,NaN,NaN,0.53994,0.44076,NaN,NaN
NaN,NaN,0.14098,NaN,NaN,NaN,0.0041064,NaN,0.85114,0.99453,0.77889,NaN,NaN,0.67352,NaN,NaN,0.99609,NaN,0.63685,0.98914
NaN,NaN,NaN,0.20343,NaN,NaN,NaN,0.34042,NaN,0.8777,NaN,0.082603,NaN,NaN,NaN,NaN,NaN,NaN,NaN,NaN
0.22173,NaN,NaN,NaN,0.054059,0.15119,NaN,NaN,NaN,NaN,0.34566,NaN,NaN,NaN,NaN,NaN,NaN,NaN,NaN,NaN
