NaN,NaN,NaN,9.0561e-11,NaN,NaN,NaN,NaN,NaN,NaN,NaN,NaN,NaN,NaN,NaN,NaN,NaN,NaN,NaN,NaN
NaN,NaN,1.8636e-06,NaN,0.0001249,NaN,NaN,NaN,NaN,NaN,NaN,NaN,0.99988,NaN,NaN,NaN,NaN,NaN,NaN,NaN
NaN,0.0016382,NaN,NaN,8.0709e-09,NaN,NaN,NaN,5.0726e-10,NaN,NaN,1,NaN,0.00023385,NaN,NaN,NaN,5.6932e-09,3.1667e-08,NaN
NaN,NaN,NaN,NaN,NaN,NaN,NaN,1,NaN,5.4395e-08,NaN,NaN,NaN,NaN,NaN,NaN,NaN,NaN,NaN,NaN
NaN,NaN,NaN,1,NaN,0.86144,NaN,NaN,NaN,NaN,1,NaN,NaN,8.3604e-06,NaN,NaN,NaN,NaN,NaN,1.478e-20
NaN,NaN,NaN,1,NaN,NaN,NaN,0.30628,NaN,NaN,NaN,NaN,NaN,NaN,NaN,NaN,NaN,NaN,NaN,NaN
NaN,0.091555,0.001822,NaN,NaN,3.8585e-21,NaN,NaN,NaN,NaN,NaN,NaN,6.9483e-06,NaN,NaN,0.98571,NaN,NaN,NaN,0.99955
NaN,0.046806,NaN,NaN,NaN,NaN,NaN,NaN,NaN,NaN,NaN,NaN,NaN,NaN,NaN,0.022077,NaN,NaN,NaN,NaN
NaN,NaN,NaN,NaN,1,NaN,NaN,NaN,NaN,NaN,NaN,NaN,0.36067,1,0.2174,NaN,0.0058155,NaN,NaN,NaN
NaN,NaN,NaN,NaN,NaN,1,1,NaN,1,NaN,NaN,NaN,1,NaN,1,1.2681e-06,NaN,2.1555e-12,NaN,NaN
NaN,0.99999,NaN,NaN,NaN,NaN,0.9994,NaN,NaN,NaN,NaN,NaN,NaN,NaN,NaN,NaN,NaN,NaN,0.99165,NaN
1,NaN,NaN,1,NaN,NaN,1,NaN,NaN,NaN,NaN,NaN,NaN,NaN,NaN,NaN,NaN,NaN,NaN,5.9925e-06
1,NaN,NaN,NaN,0.049557,NaN,0.88243,1,NaN,NaN,NaN,NaN,NaN,NaN,NaN,NaN,NaN,4.2387e-09,1,NaN
NaN,NaN,NaN,NaN,NaN,NaN,NaN,NaN,NaN,NaN,NaN,NaN,0.99924,NaN,NaN,NaN,NaN,NaN,NaN,NaN
NaN,1,1,0.94444,NaN,NaN,3.6709e-11,NaN,3.9598e-14,NaN,9.3393e-05,NaN,NaN,0.16035,NaN,NaN,NaN,NaN,NaN,NaN
NaN,NaN,NaN,0.0010382,NaN,NaN,1.4583e-09,NaN,NaN,NaN,NaN,NaN,NaN,NaN,NaN,NaN,NaN,NaN,NaN,NaN
NaN,NaN,NaN,NaN,NaN,NaN,NaN,NaN,3.6433e-05,NaN,NaN,NaN,NaN,NaN,NaN,NaN,1.0386e-05,NaN,NaN,NaN
NaN,2.6856e-05,NaN,NaN,NaN,1.9366e-17,NaN,NaN,NaN,NaN,NaN,NaN,1.0532e-10,NaN,5.5916e-09,NaN,NaN,NaN,NaN,NaN
1,NaN,NaN,NaN,NaN,NaN,NaN,NaN,NaN,NaN,NaN,NaN,NaN,NaN,NaN,NaN,5.5084e-05,NaN,2.5844e-06,NaN
NaN,NaN,NaN,1,NaN,2.7276e-11,1,NaN,NaN,4.4048e-20,NaN,1,NaN,NaN,NaN,1.9718e-29,5.9044e-20,2.0718e-11,NaN,NaN
NaN,0.99967,NaN,NaN,NaN,NaN,NaN,0.00069779,NaN,NaN,NaN,NaN,0.0059423,NaN,0.0015321,NaN,NaN,NaN,NaN,NaN
1,NaN,NaN,NaN,NaN,NaN,NaN,NaN,NaN,NaN,0.31152,NaN,NaN,NaN,NaN,NaN,NaN,NaN,NaN,NaN
NaN,NaN,NaN,NaN,0.97761,0.99881,NaN,NaN,NaN,NaN,NaN,1.4369e-06,NaN,NaN,0.9998,NaN,1,NaN,NaN,NaN
NaN,1.03e-13,NaN,NaN,8.845e-10,NaN,NaN,NaN,NaN,NaN,NaN,NaN,NaN,NaN,0.00021724,NaN,3.1832e-22,NaN,NaN,NaN
NaN,1,NaN,NaN,NaN,NaN,NaN,0.00073846,NaN,NaN,NaN,NaN,0.060443,NaN,NaN,NaN,0.99999,NaN,4.3357e-05,0.99754
NaN,NaN,NaN,NaN,NaN,NaN,NaN,NaN,0.99839,NaN,NaN,NaN,0.99808,0.40283,NaN,NaN,NaN,NaN,0.011531,NaN
NaN,NaN,NaN,NaN,NaN,NaN,NaN,NaN,NaN,NaN,NaN,NaN,NaN,NaN,NaN,NaN,0.83219,0.084664,NaN,NaN
NaN,NaN,1.4172e-08,NaN,NaN,NaN,1.4205e-24,NaN,1,1,1,NaN,NaN,0.99928,NaN,NaN,1,NaN,0.99638,1
NaN,NaN,NaN,1.18e-06,NaN,NaN,NaN,0.0013391,NaN,1,NaN,3.5024e-11,NaN,NaN,NaN,NaN,NaN,NaN,NaN,NaN
3.5237e-06,NaN,NaN,NaN,3.7158e-13,3.2145e-08,NaN,NaN,NaN,NaN,0.001689,NaN,NaN,NaN,NaN,NaN,NaN,NaN,NaN,NaN
